…
``` r
salamanders <- rbind(op16, op17, op18, op19, op20, op21, op22, op23, op24)
```

``` r
salamanders %>% 
  filter(pit != "none",
         pit != "not scanned",
         pit != "unknown") %>% 
  count(pit) %>% 
  arrange(desc(n))
```

    ## # A tibble: 288 × 2
    ##    pit        n
    ##    <chr>  <int>
    ##  1 243216    19
    ##  2 243345    16
    ##  3 243348    15
    ##  4 243261    12
    ##  5 243274    12
    ##  6 243399    12
    ##  7 243337    11
    ##  8 243403    11
    ##  9 243264    10
    ## 10 243276    10
    ## # ℹ 278 more rows

As of the end of the 2024 field season, 288 unique PIT tags have been
deployed in this population for a total of 287 PIT-tagged individuals
(one salamander was accidentally PIT-tagged twice).

``` r
salamanders %>% 
  group_by(pit) %>% 
  count(first_year)
```

    ## # A tibble: 417 × 3
    ## # Groups:   pit [292]
    ##    pit    first_year     n
    ##    <chr>  <chr>      <int>
    ##  1 243205 2019           2
    ##  2 243206 2019           4
    ##  3 243207 2019           3
    ##  4 243208 2019           2
    ##  5 243209 2022           1
    ##  6 243209 <NA>           1
    ##  7 243210 2022           1
    ##  8 243210 <NA>           1
    ##  9 243211 2019           5
    ## 10 243212 2022           2
    ## # ℹ 407 more rows
…
